@startuml
package pcbnew {
  class ActionPlugin
  class BOARD
}

package wx {
  class Dialog
}

package action_converter {
  class Converter extends ActionPlugin {
    defaults()
    Run()
  }
  
  class ConverterDialog extends Dialog {
    ConverterDialog()
    on_close()
    on_draw()
  }
  
  Converter *--> ConverterDialog
}

package core {
  abstract class Core {
    load_config()
    load_design_rules()
    draw()
  }
  
  class EL extends Core {
    draw()
  }
  
  class ELT extends Core {
    draw()
  }
}

package transformer {
  class DesignParameter
  class Coil {
    Bool : center_tap
    int : layer_count
  }
  class Transformer {
    Transformer(board, footprint, core_type, core_size)
  }
}

ConverterDialog *--> Transformer
Transformer *--> "2" Coil
Transformer *--> Core
@enduml